nf_log_arp.ko
nf_log_bridge.ko
nf_log_common.ko
nf_log_ipv4.ko
nf_log_ipv6.ko
nf_log_netdev.ko
pinctrl-amd.ko
remoteproc.ko
sha512_generic.ko
sha512-ssse3.ko
snd-soc-sst-acpi.ko
snd-soc-sst-firmware.ko
snd-soc-sst-haswell-pcm.ko
snd-sof-intel-byt.ko
